Pipelined integer adder and multiplier/rd.vcd
$date
	Sun Feb 21 23:46:19 2021
$end
$version
	Icarus Verilog
$end
$timescale
	1s
$end
$scope module CLA64 $end
$var wire 64 ! a [63:0] $end
$var wire 64 " b [63:0] $end
$var wire 1 # cin $end
$var wire 1 $ clk $end
$var wire 1 % cout $end
$var wire 32 & out2 [31:0] $end
$var wire 32 ' out1 [31:0] $end
$var wire 64 ( out [63:0] $end
$var wire 1 ) ctmp $end
$scope module l91 $end
$var wire 32 * a [32:1] $end
$var wire 32 + b [32:1] $end
$var wire 1 # cin $end
$var wire 1 $ clk $end
$var wire 64 , temp_5 [63:0] $end
$var wire 64 - temp_4 [63:0] $end
$var wire 64 . temp_3 [63:0] $end
$var wire 64 / temp_2 [63:0] $end
$var wire 64 0 temp_1 [63:0] $end
$var wire 32 1 sum [32:1] $end
$var wire 64 2 pgk [63:0] $end
$var wire 32 3 gk [32:1] $end
$var wire 1 ) cout $end
$var wire 32 4 buffb [32:1] $end
$var wire 32 5 buffa [32:1] $end
$var wire 64 6 buff_4 [63:0] $end
$var wire 64 7 buff_2 [63:0] $end
$var wire 64 8 buffPgk [63:0] $end
$var wire 32 9 buffGk [32:1] $end
$scope module DFF1 $end
$var wire 64 : a [63:0] $end
$var wire 1 $ clk $end
$var reg 64 ; out [63:0] $end
$upscope $end
$scope module DFF2 $end
$var wire 64 < a [63:0] $end
$var wire 1 $ clk $end
$var reg 64 = out [63:0] $end
$upscope $end
$scope module DFF3 $end
$var wire 64 > a [63:0] $end
$var wire 1 $ clk $end
$var reg 64 ? out [63:0] $end
$upscope $end
$scope module DFF4 $end
$var wire 32 @ a [31:0] $end
$var wire 1 $ clk $end
$var reg 32 A out [31:0] $end
$upscope $end
$scope module del1 $end
$var wire 1 $ clk $end
$var wire 32 B in [31:0] $end
$var wire 32 C out [31:0] $end
$scope begin LV[0] $end
$var wire 32 D tmp [31:0] $end
$scope begin genblk2 $end
$scope module ff $end
$var wire 32 E a [31:0] $end
$var wire 1 $ clk $end
$var reg 32 F out [31:0] $end
$upscope $end
$upscope $end
$upscope $end
$scope begin LV[1] $end
$var wire 32 G tmp [31:0] $end
$scope begin genblk5 $end
$scope module ff $end
$var wire 32 H a [31:0] $end
$var wire 1 $ clk $end
$var reg 32 I out [31:0] $end
$upscope $end
$upscope $end
$upscope $end
$scope begin LV[2] $end
$var wire 32 J tmp [31:0] $end
$scope begin genblk5 $end
$scope module ff $end
$var wire 32 K a [31:0] $end
$var wire 1 $ clk $end
$var reg 32 L out [31:0] $end
$upscope $end
$upscope $end
$upscope $end
$scope begin LV[3] $end
$scope begin genblk4 $end
$scope module ff $end
$var wire 32 M a [31:0] $end
$var wire 1 $ clk $end
$var reg 32 N out [31:0] $end
$upscope $end
$upscope $end
$upscope $end
$upscope $end
$scope module del2 $end
$var wire 1 $ clk $end
$var wire 32 O in [31:0] $end
$var wire 32 P out [31:0] $end
$scope begin LV[0] $end
$var wire 32 Q tmp [31:0] $end
$scope begin genblk2 $end
$scope module ff $end
$var wire 32 R a [31:0] $end
$var wire 1 $ clk $end
$var reg 32 S out [31:0] $end
$upscope $end
$upscope $end
$upscope $end
$scope begin LV[1] $end
$var wire 32 T tmp [31:0] $end
$scope begin genblk5 $end
$scope module ff $end
$var wire 32 U a [31:0] $end
$var wire 1 $ clk $end
$var reg 32 V out [31:0] $end
$upscope $end
$upscope $end
$upscope $end
$scope begin LV[2] $end
$var wire 32 W tmp [31:0] $end
$scope begin genblk5 $end
$scope module ff $end
$var wire 32 X a [31:0] $end
$var wire 1 $ clk $end
$var reg 32 Y out [31:0] $end
$upscope $end
$upscope $end
$upscope $end
$scope begin LV[3] $end
$scope begin genblk4 $end
$scope module ff $end
$var wire 32 Z a [31:0] $end
$var wire 1 $ clk $end
$var reg 32 [ out [31:0] $end
$upscope $end
$upscope $end
$upscope $end
$upscope $end
$upscope $end
$scope module l92 $end
$var wire 32 \ a [32:1] $end
$var wire 32 ] b [32:1] $end
$var wire 1 ^ cin $end
$var wire 1 $ clk $end
$var wire 1 % cout $end
$var wire 64 _ temp_5 [63:0] $end
$var wire 64 ` temp_4 [63:0] $end
$var wire 64 a temp_3 [63:0] $end
$var wire 64 b temp_2 [63:0] $end
$var wire 64 c temp_1 [63:0] $end
$var wire 32 d sum [32:1] $end
$var wire 64 e pgk [63:0] $end
$var wire 32 f gk [32:1] $end
$var wire 32 g buffb [32:1] $end
$var wire 32 h buffa [32:1] $end
$var wire 64 i buff_4 [63:0] $end
$var wire 64 j buff_2 [63:0] $end
$var wire 64 k buffPgk [63:0] $end
$var wire 32 l buffGk [32:1] $end
$scope module DFF1 $end
$var wire 64 m a [63:0] $end
$var wire 1 $ clk $end
$var reg 64 n out [63:0] $end
$upscope $end
$scope module DFF2 $end
$var wire 64 o a [63:0] $end
$var wire 1 $ clk $end
$var reg 64 p out [63:0] $end
$upscope $end
$scope module DFF3 $end
$var wire 64 q a [63:0] $end
$var wire 1 $ clk $end
$var reg 64 r out [63:0] $end
$upscope $end
$scope module DFF4 $end
$var wire 32 s a [31:0] $end
$var wire 1 $ clk $end
$var reg 32 t out [31:0] $end
$upscope $end
$scope module del1 $end
$var wire 1 $ clk $end
$var wire 32 u in [31:0] $end
$var wire 32 v out [31:0] $end
$scope begin LV[0] $end
$var wire 32 w tmp [31:0] $end
$scope begin genblk2 $end
$scope module ff $end
$var wire 32 x a [31:0] $end
$var wire 1 $ clk $end
$var reg 32 y out [31:0] $end
$upscope $end
$upscope $end
$upscope $end
$scope begin LV[1] $end
$var wire 32 z tmp [31:0] $end
$scope begin genblk5 $end
$scope module ff $end
$var wire 32 { a [31:0] $end
$var wire 1 $ clk $end
$var reg 32 | out [31:0] $end
$upscope $end
$upscope $end
$upscope $end
$scope begin LV[2] $end
$var wire 32 } tmp [31:0] $end
$scope begin genblk5 $end
$scope module ff $end
$var wire 32 ~ a [31:0] $end
$var wire 1 $ clk $end
$var reg 32 !" out [31:0] $end
$upscope $end
$upscope $end
$upscope $end
$scope begin LV[3] $end
$scope begin genblk4 $end
$scope module ff $end
$var wire 32 "" a [31:0] $end
$var wire 1 $ clk $end
$var reg 32 #" out [31:0] $end
$upscope $end
$upscope $end
$upscope $end
$upscope $end
$scope module del2 $end
$var wire 1 $ clk $end
$var wire 32 $" in [31:0] $end
$var wire 32 %" out [31:0] $end
$scope begin LV[0] $end
$var wire 32 &" tmp [31:0] $end
$scope begin genblk2 $end
$scope module ff $end
$var wire 32 '" a [31:0] $end
$var wire 1 $ clk $end
$var reg 32 (" out [31:0] $end
$upscope $end
$upscope $end
$upscope $end
$scope begin LV[1] $end
$var wire 32 )" tmp [31:0] $end
$scope begin genblk5 $end
$scope module ff $end
$var wire 32 *" a [31:0] $end
$var wire 1 $ clk $end
$var reg 32 +" out [31:0] $end
$upscope $end
$upscope $end
$upscope $end
$scope begin LV[2] $end
$var wire 32 ," tmp [31:0] $end
$scope begin genblk5 $end
$scope module ff $end
$var wire 32 -" a [31:0] $end
$var wire 1 $ clk $end
$var reg 32 ." out [31:0] $end
$upscope $end
$upscope $end
$upscope $end
$scope begin LV[3] $end
$scope begin genblk4 $end
$scope module ff $end
$var wire 32 /" a [31:0] $end
$var wire 1 $ clk $end
$var reg 32 0" out [31:0] $end
$upscope $end
$upscope $end
$upscope $end
$upscope $end
$upscope $end
$scope module l93 $end
$var wire 32 1" a [32:1] $end
$var wire 32 2" b [32:1] $end
$var wire 1 3" cin $end
$var wire 1 $ clk $end
$var wire 1 % cout $end
$var wire 64 4" temp_5 [63:0] $end
$var wire 64 5" temp_4 [63:0] $end
$var wire 64 6" temp_3 [63:0] $end
$var wire 64 7" temp_2 [63:0] $end
$var wire 64 8" temp_1 [63:0] $end
$var wire 32 9" sum [32:1] $end
$var wire 64 :" pgk [63:0] $end
$var wire 32 ;" gk [32:1] $end
$var wire 32 <" buffb [32:1] $end
$var wire 32 =" buffa [32:1] $end
$var wire 64 >" buff_4 [63:0] $end
$var wire 64 ?" buff_2 [63:0] $end
$var wire 64 @" buffPgk [63:0] $end
$var wire 32 A" buffGk [32:1] $end
$scope module DFF1 $end
$var wire 64 B" a [63:0] $end
$var wire 1 $ clk $end
$var reg 64 C" out [63:0] $end
$upscope $end
$scope module DFF2 $end
$var wire 64 D" a [63:0] $end
$var wire 1 $ clk $end
$var reg 64 E" out [63:0] $end
$upscope $end
$scope module DFF3 $end
$var wire 64 F" a [63:0] $end
$var wire 1 $ clk $end
$var reg 64 G" out [63:0] $end
$upscope $end
$scope module DFF4 $end
$var wire 32 H" a [31:0] $end
$var wire 1 $ clk $end
$var reg 32 I" out [31:0] $end
$upscope $end
$scope module del1 $end
$var wire 1 $ clk $end
$var wire 32 J" in [31:0] $end
$var wire 32 K" out [31:0] $end
$scope begin LV[0] $end
$var wire 32 L" tmp [31:0] $end
$scope begin genblk2 $end
$scope module ff $end
$var wire 32 M" a [31:0] $end
$var wire 1 $ clk $end
$var reg 32 N" out [31:0] $end
$upscope $end
$upscope $end
$upscope $end
$scope begin LV[1] $end
$var wire 32 O" tmp [31:0] $end
$scope begin genblk5 $end
$scope module ff $end
$var wire 32 P" a [31:0] $end
$var wire 1 $ clk $end
$var reg 32 Q" out [31:0] $end
$upscope $end
$upscope $end
$upscope $end
$scope begin LV[2] $end
$var wire 32 R" tmp [31:0] $end
$scope begin genblk5 $end
$scope module ff $end
$var wire 32 S" a [31:0] $end
$var wire 1 $ clk $end
$var reg 32 T" out [31:0] $end
$upscope $end
$upscope $end
$upscope $end
$scope begin LV[3] $end
$scope begin genblk4 $end
$scope module ff $end
$var wire 32 U" a [31:0] $end
$var wire 1 $ clk $end
$var reg 32 V" out [31:0] $end
$upscope $end
$upscope $end
$upscope $end
$upscope $end
$scope module del2 $end
$var wire 1 $ clk $end
$var wire 32 W" in [31:0] $end
$var wire 32 X" out [31:0] $end
$scope begin LV[0] $end
$var wire 32 Y" tmp [31:0] $end
$scope begin genblk2 $end
$scope module ff $end
$var wire 32 Z" a [31:0] $end
$var wire 1 $ clk $end
$var reg 32 [" out [31:0] $end
$upscope $end
$upscope $end
$upscope $end
$scope begin LV[1] $end
$var wire 32 \" tmp [31:0] $end
$scope begin genblk5 $end
$scope module ff $end
$var wire 32 ]" a [31:0] $end
$var wire 1 $ clk $end
$var reg 32 ^" out [31:0] $end
$upscope $end
$upscope $end
$upscope $end
$scope begin LV[2] $end
$var wire 32 _" tmp [31:0] $end
$scope begin genblk5 $end
$scope module ff $end
$var wire 32 `" a [31:0] $end
$var wire 1 $ clk $end
$var reg 32 a" out [31:0] $end
$upscope $end
$upscope $end
$upscope $end
$scope begin LV[3] $end
$scope begin genblk4 $end
$scope module ff $end
$var wire 32 b" a [31:0] $end
$var wire 1 $ clk $end
$var reg 32 c" out [31:0] $end
$upscope $end
$upscope $end
$upscope $end
$upscope $end
$upscope $end
$upscope $end
$scope module top $end
$var wire 32 d" sum [32:1] $end
$var wire 1 e" cout $end
$var reg 32 f" a [32:1] $end
$var reg 32 g" b [32:1] $end
$var reg 1 h" cin $end
$var reg 1 i" clk $end
$var integer 32 j" i [31:0] $end
$scope module rd $end
$var wire 32 k" a [32:1] $end
$var wire 32 l" b [32:1] $end
$var wire 1 h" cin $end
$var wire 1 i" clk $end
$var wire 64 m" temp_5 [63:0] $end
$var wire 64 n" temp_4 [63:0] $end
$var wire 64 o" temp_3 [63:0] $end
$var wire 64 p" temp_2 [63:0] $end
$var wire 64 q" temp_1 [63:0] $end
$var wire 32 r" sum [32:1] $end
$var wire 64 s" pgk [63:0] $end
$var wire 32 t" gk [32:1] $end
$var wire 1 e" cout $end
$var wire 32 u" buffb [32:1] $end
$var wire 32 v" buffa [32:1] $end
$var wire 64 w" buff_4 [63:0] $end
$var wire 64 x" buff_2 [63:0] $end
$var wire 64 y" buffPgk [63:0] $end
$var wire 32 z" buffGk [32:1] $end
$scope module DFF1 $end
$var wire 64 {" a [63:0] $end
$var wire 1 i" clk $end
$var reg 64 |" out [63:0] $end
$upscope $end
$scope module DFF2 $end
$var wire 64 }" a [63:0] $end
$var wire 1 i" clk $end
$var reg 64 ~" out [63:0] $end
$upscope $end
$scope module DFF3 $end
$var wire 64 !# a [63:0] $end
$var wire 1 i" clk $end
$var reg 64 "# out [63:0] $end
$upscope $end
$scope module DFF4 $end
$var wire 32 ## a [31:0] $end
$var wire 1 i" clk $end
$var reg 32 $# out [31:0] $end
$upscope $end
$scope module del1 $end
$var wire 1 i" clk $end
$var wire 32 %# in [31:0] $end
$var wire 32 &# out [31:0] $end
$scope begin LV[0] $end
$var wire 32 '# tmp [31:0] $end
$scope begin genblk2 $end
$scope module ff $end
$var wire 32 (# a [31:0] $end
$var wire 1 i" clk $end
$var reg 32 )# out [31:0] $end
$upscope $end
$upscope $end
$upscope $end
$scope begin LV[1] $end
$var wire 32 *# tmp [31:0] $end
$scope begin genblk5 $end
$scope module ff $end
$var wire 32 +# a [31:0] $end
$var wire 1 i" clk $end
$var reg 32 ,# out [31:0] $end
$upscope $end
$upscope $end
$upscope $end
$scope begin LV[2] $end
$var wire 32 -# tmp [31:0] $end
$scope begin genblk5 $end
$scope module ff $end
$var wire 32 .# a [31:0] $end
$var wire 1 i" clk $end
$var reg 32 /# out [31:0] $end
$upscope $end
$upscope $end
$upscope $end
$scope begin LV[3] $end
$scope begin genblk4 $end
$scope module ff $end
$var wire 32 0# a [31:0] $end
$var wire 1 i" clk $end
$var reg 32 1# out [31:0] $end
$upscope $end
$upscope $end
$upscope $end
$upscope $end
$scope module del2 $end
$var wire 1 i" clk $end
$var wire 32 2# in [31:0] $end
$var wire 32 3# out [31:0] $end
$scope begin LV[0] $end
$var wire 32 4# tmp [31:0] $end
$scope begin genblk2 $end
$scope module ff $end
$var wire 32 5# a [31:0] $end
$var wire 1 i" clk $end
$var reg 32 6# out [31:0] $end
$upscope $end
$upscope $end
$upscope $end
$scope begin LV[1] $end
$var wire 32 7# tmp [31:0] $end
$scope begin genblk5 $end
$scope module ff $end
$var wire 32 8# a [31:0] $end
$var wire 1 i" clk $end
$var reg 32 9# out [31:0] $end
$upscope $end
$upscope $end
$upscope $end
$scope begin LV[2] $end
$var wire 32 :# tmp [31:0] $end
$scope begin genblk5 $end
$scope module ff $end
$var wire 32 ;# a [31:0] $end
$var wire 1 i" clk $end
$var reg 32 <# out [31:0] $end
$upscope $end
$upscope $end
$upscope $end
$scope begin LV[3] $end
$scope begin genblk4 $end
$scope module ff $end
$var wire 32 =# a [31:0] $end
$var wire 1 i" clk $end
$var reg 32 ># out [31:0] $end
$upscope $end
$upscope $end
$upscope $end
$upscope $end
$upscope $end
$upscope $end
$enddefinitions $end
#0
$dumpvars
bx >#
bx =#
bx <#
bx ;#
bx :#
bx 9#
bx 8#
bx 7#
bx 6#
b0 5#
bx 4#
bx 3#
b0 2#
bx 1#
bx 0#
bx /#
bx .#
bx -#
bx ,#
bx +#
bx *#
bx )#
b0 (#
bx '#
bx &#
b0 %#
bx $#
bx ##
bx "#
bx !#
bx ~"
bx }"
bx |"
b0 {"
bx z"
bx y"
bx x"
bx w"
bx v"
bx u"
bx t"
b0 s"
bx r"
bx q"
bx p"
bx o"
bx n"
bx m"
b0 l"
b0 k"
b0 j"
0i"
0h"
b0 g"
b0 f"
xe"
bx d"
bx c"
bx b"
bx a"
bx `"
bx _"
bx ^"
bx ]"
bx \"
bx ["
bz Z"
bx Y"
bx X"
bz W"
bx V"
bx U"
bx T"
bx S"
bx R"
bx Q"
bx P"
bx O"
bx N"
bz M"
bx L"
bx K"
bz J"
bx I"
bx H"
bx G"
bx F"
bx E"
bx D"
bx C"
bx B"
bx A"
bx @"
bx ?"
bx >"
bx ="
bx <"
bx ;"
bx :"
bx 9"
bx 8"
bx 7"
bx 6"
bx 5"
bx 4"
13"
bz 2"
bz 1"
bx 0"
bx /"
bx ."
bx -"
bx ,"
bx +"
bx *"
bx )"
bx ("
bz '"
bx &"
bx %"
bz $"
bx #"
bx ""
bx !"
bx ~
bx }
bx |
bx {
bx z
bx y
bz x
bx w
bx v
bz u
bx t
bx s
bx r
bx q
bx p
bx o
bx n
bx m
bx l
bx k
bx j
bx i
bx h
bx g
bx f
bx e
bx d
bx c
bx b
bx a
bx `
bx _
0^
bz ]
bz \
bx [
bx Z
bx Y
bx X
bx W
bx V
bx U
bx T
bx S
bz R
bx Q
bx P
bz O
bx N
bx M
bx L
bx K
bx J
bx I
bx H
bx G
bx F
bz E
bx D
bx C
bz B
bx A
bx @
bx ?
bx >
bx =
bx <
bx ;
bx :
bx 9
bx 8
bx 7
bx 6
bx 5
bx 4
bx 3
bx 2
bx 1
bx 0
bx /
bx .
bx -
bx ,
bz +
bz *
x)
bx (
bx '
bx &
x%
z$
z#
bz "
bz !
$end
#5
b0 p"
b0 }"
b0 q"
b0 y"
b0 |"
b0 '#
b0 )#
b0 +#
b0 4#
b0 6#
b0 8#
b1 j"
1i"
#10
b1010101010000000101010000000101010000000101010000000101010000000 s"
b1010101010000000101010000000101010000000101010000000101010000000 {"
b10 j"
0i"
b11111000111000111000111000111000 f"
b11111000111000111000111000111000 k"
b11111000111000111000111000111000 %#
b11111000111000111000111000111000 (#
#15
b1010000000000000000000000000000000000000000000000000000000000000 p"
b1010000000000000000000000000000000000000000000000000000000000000 }"
b1010101000000000101000000000101000000000101000000000101000000000 q"
b0 n"
b0 !#
b0 o"
b0 7#
b0 9#
b0 ;#
b0 *#
b0 ,#
b0 .#
b11111000111000111000111000111000 '#
b11111000111000111000111000111000 )#
b11111000111000111000111000111000 +#
b0 x"
b0 ~"
b1010101010000000101010000000101010000000101010000000101010000000 y"
b1010101010000000101010000000101010000000101010000000101010000000 |"
b11 j"
1i"
#20
b100 j"
0i"
#25
b0 t"
b0 ##
b0 m"
b1010000000000000000000000000000000000000000000000000000000000000 x"
b1010000000000000000000000000000000000000000000000000000000000000 ~"
b0 w"
b0 "#
b11111000111000111000111000111000 *#
b11111000111000111000111000111000 ,#
b11111000111000111000111000111000 .#
b0 -#
b0 /#
b0 0#
b0 :#
b0 <#
b0 =#
b101 j"
1i"
#30
b1100 s"
b1100 {"
b110 j"
0i"
b10 g"
b10 l"
b10 2#
b10 5#
b11 f"
b11 k"
b11 %#
b11 (#
#35
b1100 p"
b1100 }"
b0 d"
b0 r"
b1100 q"
0e"
b0 u"
b0 3#
b0 >#
b10 4#
b10 6#
b10 8#
b0 v"
b0 &#
b0 1#
b11111000111000111000111000111000 -#
b11111000111000111000111000111000 /#
b11111000111000111000111000111000 0#
b11 '#
b11 )#
b11 +#
b0 z"
b0 $#
b1100 y"
b1100 |"
b111 j"
1i"
#40
b1000 j"
0i"
#45
b11111000111000111000111000111000 d"
b11111000111000111000111000111000 r"
b1100 n"
b1100 !#
b1100 o"
b1100 x"
b1100 ~"
b11 *#
b11 ,#
b11 .#
b11111000111000111000111000111000 v"
b11111000111000111000111000111000 &#
b11111000111000111000111000111000 1#
b10 7#
b10 9#
b10 ;#
b1001 j"
1i"
#50
b1010 j"
0i"
#55
b10 t"
b10 ##
b1100 m"
b10 :#
b10 <#
b10 =#
b11 -#
b11 /#
b11 0#
b1100 w"
b1100 "#
b1011 j"
1i"
#60
b1100 j"
0i"
#65
b101 d"
b101 r"
b10 z"
b10 $#
b11 v"
b11 &#
b11 1#
b10 u"
b10 3#
b10 >#
b1101 j"
1i"
#70
b1110 j"
0i"
#75
b1111 j"
1i"
#80
b10000 j"
0i"
#85
b10001 j"
1i"
#90
b10010 j"
0i"
#95
b10011 j"
1i"
#100
b10100 j"
0i"
#105
b10101 j"
1i"
#110
b10110 j"
0i"
#115
b10111 j"
1i"
#120
b11000 j"
0i"
#125
b11001 j"
1i"
#130
b11010 j"
0i"
#135
b11011 j"
1i"
#140
b11100 j"
0i"
#145
b11101 j"
1i"
#150
b11110 j"
0i"
#155
b11111 j"
1i"
#160
b100000 j"
0i"
#165
b100001 j"
1i"
#170
b100010 j"
0i"
#175
b100011 j"
1i"
#180
b100100 j"
0i"
#185
b100101 j"
1i"
#190
b100110 j"
0i"
#195
b100111 j"
1i"
#200
b101000 j"
0i"
#205
b101001 j"
1i"
#210
b101010 j"
0i"
#215
b101011 j"
1i"
#220
b101100 j"
0i"
#225
b101101 j"
1i"
#230
b101110 j"
0i"
#235
b101111 j"
1i"
#240
b110000 j"
0i"
#245
b110001 j"
1i"
#250
b110010 j"
0i"
#255
b110011 j"
1i"
#260
b110100 j"
0i"
#265
b110101 j"
1i"
#270
b110110 j"
0i"
#275
b110111 j"
1i"
#280
b111000 j"
0i"
#285
b111001 j"
1i"
#290
b111010 j"
0i"
#295
b111011 j"
1i"
#300
b111100 j"
0i"
#305
b111101 j"
1i"
#310
b111110 j"
0i"
#315
b111111 j"
1i"
#320
b1000000 j"
0i"
#325
b1000001 j"
1i"
#330
b1000010 j"
0i"
#335
b1000011 j"
1i"
#340
b1000100 j"
0i"
#345
b1000101 j"
1i"
#350
b1000110 j"
0i"
#355
b1000111 j"
1i"
#360
b1001000 j"
0i"
#365
b1001001 j"
1i"
#370
b1001010 j"
0i"
#375
b1001011 j"
1i"
#380
b1001100 j"
0i"
#385
b1001101 j"
1i"
#390
b1001110 j"
0i"
#395
b1001111 j"
1i"
#400
b1010000 j"
0i"
#405
b1010001 j"
1i"
#410
b1010010 j"
0i"
#415
b1010011 j"
1i"
#420
b1010100 j"
0i"
#425
b1010101 j"
1i"
#430
b1010110 j"
0i"
#435
b1010111 j"
1i"
#440
b1011000 j"
0i"
#445
b1011001 j"
1i"
#450
b1011010 j"
0i"
#455
b1011011 j"
1i"
#460
b1011100 j"
0i"
#465
b1011101 j"
1i"
#470
b1011110 j"
0i"
#475
b1011111 j"
1i"
#480
b1100000 j"
0i"
#485
b1100001 j"
1i"
#490
b1100010 j"
0i"
#495
b1100011 j"
1i"
#500
b1100100 j"
0i"
